herokuapp_pages/JavaScriptAlertPage.class
palindrome/PalindromeTest.class
herokuapp_pages/NavigateToHerokuapp.class
qantas_tests/TestQantas.class
qantas_pages/QantasHomepage.class
palindrome/Palindrome.class
herokuapp_tests/TestHerokuapp.class
